answers reviews emails weblogs newsgroups
93.28 94.29 93.39 94.51 94.19
93.39 94.39 93.40 94.53 94.36
93.10 94.13 93.50 94.41 94.14
93.23 94.27 93.53 94.52 94.21
93.04 94.20 93.44 94.45 94.14
93.19 94.38 93.30 94.57 94.41
93.00 94.12 93.12 94.27 94.18
93.28 94.31 93.63 94.54 94.41
93.29 94.26 93.60 94.68 94.37
93.29 94.31 93.42 94.42 94.11
93.33 94.30 93.60 94.51 94.47
93.22 94.36 93.46 94.60 94.43
93.14 94.21 93.45 94.41 94.25
93.14 94.24 93.46 94.55 94.42
93.26 94.18 93.19 94.53 94.31
93.01 94.07 93.26 94.28 94.21
93.24 94.23 93.34 94.40 94.28
93.24 94.34 93.41 94.58 94.21
93.12 94.25 93.43 94.49 94.25
93.03 94.29 93.30 94.50 94.34
93.14 94.12 93.40 94.52 94.35
93.18 94.38 93.31 94.28 94.06
93.22 94.28 93.30 94.36 94.20
93.18 94.24 93.31 94.56 94.33
93.28 94.21 93.41 94.38 94.15
93.12 94.28 93.34 94.45 94.26
93.26 94.31 93.37 94.63 94.43
93.32 94.36 93.36 94.46 94.28
93.18 94.26 93.27 94.54 94.28
93.23 94.23 93.42 94.52 94.29
93.25 94.29 93.54 94.53 94.32
93.24 94.20 93.47 94.59 94.39
93.26 94.26 93.38 94.44 94.20
93.10 94.19 93.37 94.32 94.11
93.18 94.21 93.43 94.42 94.26
93.23 94.35 93.33 94.48 94.40
93.18 94.29 93.37 94.49 94.36
93.20 94.34 93.36 94.45 94.38
93.21 94.25 93.37 94.50 94.62
93.25 94.33 93.37 94.66 94.20
93.19 94.28 93.58 94.34 94.18
93.12 94.25 93.41 94.37 94.23
93.25 94.38 93.46 94.52 94.36
93.04 94.18 93.34 94.42 94.19
93.18 94.17 93.53 94.51 94.23
93.26 94.27 93.40 94.49 94.32
93.14 94.24 93.41 94.50 94.31
93.31 94.41 93.42 94.49 94.08
93.13 94.22 93.43 94.35 94.04
93.21 94.36 93.38 94.42 94.14
93.11 94.17 93.38 94.57 94.16
93.10 94.23 93.35 94.72 94.34
93.21 94.26 93.51 94.42 94.34
93.24 94.26 93.60 94.58 94.35
93.24 94.29 93.41 94.58 94.25
93.10 94.08 93.39 94.47 94.37
93.31 94.07 93.64 94.46 94.30
93.21 94.23 93.48 94.57 94.41
93.06 94.27 93.29 94.38 94.19
93.08 94.20 93.28 94.66 94.30
93.15 94.31 93.40 94.61 94.28
93.29 94.38 93.39 94.58 94.34
93.16 94.26 93.41 94.37 94.23
93.25 94.32 93.57 94.51 94.50
93.20 94.19 93.50 94.62 94.26
93.20 94.31 93.38 94.53 94.13
93.23 94.29 93.43 94.54 94.16
93.26 94.42 93.37 94.48 94.30
93.19 94.30 93.40 94.48 94.27
93.28 94.25 93.40 94.56 94.21
93.19 94.10 93.54 94.62 94.30
93.37 94.30 93.41 94.48 94.22
93.12 94.22 93.36 94.66 94.44
93.29 94.17 93.36 94.58 94.27
93.17 94.14 93.33 94.33 94.14
93.17 94.26 93.35 94.41 94.28
93.10 94.24 93.41 94.52 94.22
93.16 94.35 93.58 94.58 94.34
93.24 94.45 93.41 94.47 94.17
93.33 94.26 93.32 94.57 94.31
93.24 94.33 93.41 94.45 94.41
93.17 94.19 93.48 94.49 94.33
93.04 94.11 93.37 94.45 94.28
93.29 94.30 93.40 94.78 94.43
93.24 94.36 93.30 94.62 94.46
93.09 94.27 93.38 94.48 94.28
93.30 94.29 93.31 94.66 94.33
93.14 94.22 93.31 94.62 94.36
93.13 94.21 93.30 94.46 94.09
93.21 94.24 93.35 94.49 94.32
93.11 94.22 93.45 94.49 94.25
93.20 94.15 93.50 94.55 94.35
93.20 94.30 93.74 94.68 94.45
93.22 94.39 93.27 94.55 94.29
93.21 94.18 93.36 94.46 94.37
93.27 94.26 93.40 94.48 94.27
93.16 94.21 93.53 94.61 94.44
93.24 94.23 93.38 94.79 94.46
93.43 94.47 93.50 94.38 94.05
93.14 94.23 93.35 94.51 94.23
93.37 94.37 93.29 94.52 94.30
93.15 94.21 93.37 94.54 94.39
93.34 94.31 93.50 94.66 94.54
93.17 94.30 93.52 94.51 94.27
93.39 94.36 93.48 94.52 94.30
93.18 94.28 93.84 94.47 94.18
93.26 94.28 93.57 94.49 94.16
93.23 94.36 93.48 94.38 94.09
93.20 94.21 93.44 94.54 94.36
93.23 94.31 93.35 94.41 94.24
93.24 94.30 93.51 94.71 94.44
93.11 94.31 93.37 94.40 94.33
93.29 94.39 93.39 94.66 94.33
93.18 94.22 93.82 94.44 94.12
93.29 94.22 93.45 94.61 94.29
93.20 94.31 93.37 94.59 94.37
93.27 94.34 93.25 94.68 94.40
93.27 94.39 93.59 94.60 94.20
93.17 94.20 93.47 94.50 94.36
93.20 94.31 93.37 94.52 94.51
93.27 94.19 93.35 94.41 94.24
93.15 94.34 93.33 94.60 94.44
93.20 94.34 93.40 94.52 94.29
93.19 94.25 93.44 94.36 94.26
93.22 94.25 93.39 94.55 94.22
93.07 94.13 93.33 94.40 94.28
93.18 94.09 93.30 94.47 94.32
93.13 94.37 93.50 94.41 94.38
93.11 94.15 93.49 94.40 94.34
93.17 94.31 93.26 94.54 94.45
93.22 94.22 93.42 94.64 94.42
93.14 94.12 93.45 94.74 94.52
93.29 94.20 93.50 94.57 94.30
93.39 94.30 93.33 94.52 94.36
93.13 94.26 93.42 94.61 94.38
93.18 94.27 93.43 94.48 94.18
92.91 94.14 93.18 94.48 94.24
93.21 94.27 93.35 94.51 94.28
93.20 94.12 93.29 94.27 94.01
93.16 94.32 93.41 94.64 94.30
93.24 94.32 93.35 94.46 94.35
93.25 94.32 93.45 94.54 94.33
93.22 94.33 93.60 94.51 94.33
93.20 94.18 93.34 94.55 94.48
93.35 94.37 93.27 94.70 94.28
93.06 94.18 93.30 94.45 94.20
93.23 94.43 93.43 94.58 94.24
93.20 94.18 93.45 94.45 94.32
93.23 94.30 93.51 94.38 94.07
93.17 94.05 93.52 94.68 94.46
93.04 94.22 93.33 94.49 94.20
93.15 94.24 93.37 94.48 94.25
93.22 94.20 93.41 94.43 94.19
93.16 94.33 93.30 94.41 94.12
93.28 94.26 93.49 94.56 94.38
93.35 94.21 93.49 94.57 94.28
93.12 94.25 93.75 94.61 94.27
93.28 94.35 93.32 94.66 94.38
93.18 94.30 93.42 94.56 94.29
93.15 94.27 93.39 94.67 94.43
93.15 94.26 93.43 94.37 94.14
93.16 94.21 93.38 94.34 93.96
93.13 94.31 93.38 94.60 94.49
93.21 94.31 93.52 94.40 94.23
93.32 94.36 93.50 94.72 94.24
93.34 94.23 93.34 94.59 94.30
93.31 94.32 93.41 94.75 94.41
93.13 94.27 93.40 94.65 94.40
93.32 94.23 93.42 94.44 94.28
93.33 94.32 93.47 94.25 94.05
93.12 94.25 93.34 94.50 94.28
93.16 94.25 93.26 94.71 94.20
93.12 94.36 93.31 94.64 94.28
93.15 94.28 93.60 94.63 94.46
93.15 94.28 93.10 94.50 94.25
93.14 94.27 93.23 94.38 94.04
93.38 94.19 93.45 94.50 94.38
93.22 94.24 93.36 94.61 94.06
93.12 94.18 93.34 94.63 94.31
93.22 94.10 93.22 94.43 94.22
93.13 94.25 93.41 94.68 94.28
93.12 94.24 93.41 94.58 94.31
93.34 94.41 93.43 94.65 94.57
93.14 94.33 93.47 94.38 94.24
93.25 94.36 93.32 94.38 94.10
93.15 94.09 93.33 94.53 94.26
93.21 94.22 93.49 94.60 94.34
93.32 94.32 93.38 94.64 94.43
93.10 94.35 93.43 94.27 93.95
93.16 94.24 93.54 94.44 94.08
93.20 94.26 93.43 94.54 94.38
93.06 94.17 93.38 94.45 94.43
93.21 94.21 93.45 94.31 94.12
93.28 94.34 93.63 94.80 94.28
93.19 94.16 93.34 94.58 94.25
93.17 94.15 93.28 94.45 94.25
93.10 94.37 93.29 94.51 94.31
93.30 94.33 93.48 94.61 94.37
93.26 94.24 93.68 94.51 94.33
93.07 94.34 93.34 94.55 94.37
93.23 94.15 93.53 94.66 94.34
93.21 94.38 93.50 94.25 94.21
93.19 94.21 93.33 94.43 94.27
93.20 94.23 93.48 94.30 94.33
93.10 94.37 93.41 94.50 94.36
93.16 94.32 93.33 94.67 94.30
93.24 94.37 93.41 94.49 94.42
93.22 94.37 93.56 94.67 94.37
93.22 94.26 93.39 94.64 94.34
93.14 94.19 93.30 94.55 94.31
93.20 94.30 93.28 94.34 94.09
93.18 94.20 93.33 94.47 94.42
93.26 94.42 93.35 94.54 94.40
93.04 94.17 93.43 94.58 94.44
93.20 94.37 93.43 94.53 94.42
93.17 94.23 93.39 94.60 94.18
93.28 94.26 93.52 94.59 94.41
93.31 94.29 93.26 94.41 94.15
93.24 94.27 93.36 94.41 94.03
93.27 94.31 93.32 94.38 94.32
93.18 94.32 93.44 94.62 94.36
93.13 94.27 93.50 94.47 94.42
93.18 94.33 93.57 94.52 94.34
93.30 94.40 93.40 94.50 94.16
93.13 94.31 93.36 94.46 94.23
93.27 94.33 93.35 94.60 94.30
93.23 94.25 93.43 94.54 94.42
93.19 94.22 93.40 94.57 94.26
93.30 94.38 93.42 94.58 94.36
93.18 94.36 93.39 94.40 94.32
93.30 94.32 93.34 94.52 94.33
93.15 94.32 93.34 94.54 94.31
93.14 94.31 93.43 94.60 94.35
93.34 94.20 93.31 94.37 94.24
93.30 94.42 93.34 94.66 94.27
93.06 94.23 93.42 94.39 94.13
93.22 94.15 93.44 94.60 94.45
93.12 94.27 93.50 94.54 94.29
93.20 94.26 93.35 94.58 94.11
93.19 94.20 93.30 94.39 94.26
93.19 94.34 93.34 94.43 94.39
93.31 94.20 93.56 94.51 94.20
93.16 94.31 93.35 94.58 94.30
93.18 94.26 93.80 94.51 94.21
93.21 94.09 93.34 94.52 94.49
93.25 94.29 93.34 94.52 94.26
93.06 94.24 93.43 94.65 94.29
93.18 94.24 93.37 94.51 94.35
93.14 94.33 93.44 94.36 94.18
93.09 94.31 93.40 94.34 94.16
93.26 94.39 93.38 94.65 94.25
93.20 94.41 93.45 94.66 94.23
93.08 94.29 93.37 94.59 94.27
93.22 94.35 93.42 94.81 94.57
93.20 94.33 93.45 94.60 94.37
93.18 94.29 93.38 94.41 94.21
93.05 94.19 93.37 94.52 94.32
93.26 94.22 93.47 94.55 94.22
93.05 94.25 93.46 94.46 94.22
93.05 94.28 93.45 94.55 94.24
93.22 94.27 93.66 94.46 94.40
93.21 94.31 93.41 94.47 94.33
93.26 94.26 93.25 94.54 94.31
93.31 94.29 93.72 94.79 94.46
93.21 94.38 93.43 94.59 94.25
93.12 94.26 93.31 94.49 94.17
93.26 94.31 93.40 94.64 94.38
93.28 94.23 93.38 94.77 94.34
93.13 94.22 93.50 94.61 94.48
93.36 94.29 93.55 94.43 94.42
93.15 94.24 93.30 94.38 94.26
93.00 94.27 93.55 94.68 94.24
93.10 94.16 93.26 94.53 94.30
93.28 94.18 93.36 94.41 94.31
93.06 94.28 93.33 94.33 94.01
93.07 94.15 93.14 94.46 94.04
93.31 94.18 93.35 94.65 94.55
93.19 94.18 93.33 94.33 94.04
93.20 94.24 93.38 94.44 94.37
93.24 94.30 93.50 94.52 94.43
93.13 94.28 93.34 94.57 94.27
92.92 94.19 93.34 94.35 94.10
93.15 94.25 93.52 94.60 94.37
93.28 94.30 93.44 94.52 94.26
93.22 94.31 93.68 94.55 94.31
93.14 94.14 93.47 94.49 94.39
93.28 94.28 93.59 94.55 94.27
93.17 94.26 93.56 94.61 94.37
93.16 94.18 93.33 94.42 94.36
93.32 94.34 93.55 94.58 94.34
93.26 94.27 93.34 94.50 94.35
93.27 94.12 93.68 94.54 94.49
93.33 94.34 93.33 94.61 94.50
93.21 94.26 93.31 94.59 94.38
93.16 94.25 93.41 94.58 94.24
93.10 94.13 93.40 94.56 94.25
93.24 94.21 93.46 94.49 94.29
93.04 94.24 93.21 94.61 94.29
93.21 94.25 93.38 94.51 94.15
93.31 94.34 93.36 94.66 94.25
93.33 94.41 93.37 94.65 94.20
93.10 94.34 93.36 94.62 94.31
93.22 94.16 93.39 94.40 94.28
93.20 94.30 93.47 94.50 94.33
93.22 94.26 93.35 94.57 94.41
93.16 94.31 93.25 94.61 94.45
93.15 94.17 93.37 94.66 94.22
93.23 94.31 93.58 94.57 94.42
93.34 94.32 93.59 94.61 94.29
93.11 94.27 93.29 94.66 94.39
93.11 94.25 93.36 94.55 94.14
93.17 94.22 93.27 94.54 94.21
93.20 94.19 93.37 94.60 94.33
93.28 94.16 93.36 94.58 94.49
93.16 94.27 93.50 94.28 94.05
93.31 94.27 93.34 94.54 94.23
93.31 94.36 93.36 94.65 94.23
93.32 94.25 93.73 94.55 94.23
93.19 94.26 93.52 94.39 94.48
93.24 94.25 93.34 94.59 94.44
93.35 94.32 93.41 94.59 94.28
93.25 94.25 93.37 94.54 94.27
93.13 94.21 93.40 94.50 94.27
93.26 94.25 93.46 94.54 94.31
93.10 94.33 93.49 94.53 94.21
93.21 94.35 93.32 94.42 94.31
93.15 94.30 93.37 94.48 94.21
93.17 94.28 93.36 94.34 94.12
93.26 94.34 93.24 94.48 94.28
93.13 94.21 93.74 94.59 94.29
93.20 94.36 93.41 94.59 94.25
93.22 94.24 93.30 94.71 94.29
93.02 94.21 93.30 94.36 94.33
93.19 94.30 93.41 94.51 94.27
93.09 94.25 93.38 94.53 94.31
93.25 94.27 93.26 94.63 94.37
93.24 94.13 93.42 94.60 94.36
93.14 94.43 93.49 94.53 94.36
93.18 94.29 93.74 94.38 94.33
93.14 94.22 93.35 94.50 94.32
93.25 94.31 93.30 94.50 94.30
93.32 94.41 93.38 94.66 94.33
93.15 94.13 93.43 94.26 94.28
93.14 94.33 93.37 94.50 94.30
93.15 94.30 93.51 94.55 94.39
93.27 94.24 93.37 94.38 94.22
93.25 94.34 93.38 94.38 94.21
93.19 94.26 93.34 94.59 94.17
93.21 94.24 93.35 94.59 94.39
93.26 94.18 93.51 94.56 94.29
93.11 94.25 93.31 94.39 93.99
93.14 94.22 93.31 94.35 94.08
93.12 94.13 93.42 94.60 94.45
93.33 94.23 93.52 94.48 94.45
93.18 94.14 93.20 94.25 94.25
93.20 94.22 93.40 94.53 94.40
93.39 94.49 93.63 94.67 94.36
93.13 94.24 93.51 94.53 94.41
93.13 94.12 93.30 94.53 94.40
93.19 94.18 93.28 94.41 94.18
93.22 94.29 93.49 94.57 94.37
93.25 94.24 93.40 94.43 94.41
93.26 94.39 93.38 94.66 94.21
93.27 94.32 93.30 94.30 94.02
93.23 94.28 93.30 94.53 94.32
93.33 94.20 93.31 94.48 94.28
93.12 94.26 93.43 94.57 94.25
93.30 94.36 93.45 94.34 93.97
93.33 94.32 93.36 94.51 94.05
93.29 94.33 93.36 94.49 94.33
93.11 94.27 93.47 94.56 94.21
93.29 94.19 93.31 94.51 94.38
93.31 94.33 93.48 94.54 94.19
93.26 94.18 93.38 94.51 94.38
93.07 94.22 93.47 94.32 94.06
93.30 94.22 93.34 94.37 94.20
93.11 94.16 93.27 94.52 94.21
93.21 94.26 93.61 94.62 94.50
93.13 94.23 93.25 94.28 94.19
93.18 94.27 93.29 94.52 94.37
93.22 94.34 93.31 94.64 94.20
93.27 94.35 93.31 94.44 94.18
93.35 94.41 93.75 94.66 94.45
93.17 94.17 93.31 94.56 94.34
93.14 94.26 93.40 94.63 94.31
93.26 94.27 93.44 94.53 94.40
93.19 94.34 93.42 94.43 94.31
93.30 94.27 93.53 94.61 94.40
93.23 94.31 93.52 94.54 94.28
93.10 94.31 93.23 94.56 94.32
93.19 94.24 93.37 94.43 94.37
93.18 94.32 93.36 94.69 94.38
93.22 94.29 93.35 94.63 94.32
93.12 94.21 93.39 94.38 94.32
93.29 94.33 93.43 94.64 94.35
93.07 94.23 93.65 94.60 94.18
93.07 94.27 93.35 94.50 94.38
93.16 94.23 93.43 94.47 94.30
93.12 94.29 93.45 94.55 94.18
93.24 94.35 93.37 94.45 94.41
93.26 94.34 93.42 94.43 94.39
93.14 94.26 93.43 94.44 94.32
93.12 94.22 93.53 94.67 94.29
93.18 94.19 93.33 94.51 94.14
93.26 94.36 93.30 94.58 94.24
93.09 94.35 93.31 94.53 94.17
93.20 94.20 93.32 94.54 94.27
93.25 94.25 93.49 94.55 94.21
93.04 94.27 93.40 94.50 94.27
93.15 94.24 93.47 94.48 94.19
93.18 94.27 93.48 94.21 94.19
93.26 94.41 93.35 94.45 94.51
93.18 94.21 93.40 94.64 94.46
93.21 94.25 93.43 94.58 94.32
93.15 94.21 93.30 94.59 94.38
93.10 94.32 93.43 94.42 94.15
93.06 94.24 93.30 94.49 94.31
93.15 94.25 93.40 94.58 94.39
93.19 94.29 93.64 94.38 94.44
93.25 94.30 93.45 94.52 94.17
93.22 94.18 93.33 94.52 94.40
93.23 94.08 93.30 94.36 94.25
93.25 94.31 93.66 94.69 94.42
93.21 94.29 93.42 94.59 94.29
93.21 94.32 93.37 94.59 94.40
93.15 94.12 93.36 94.38 94.16
93.22 94.19 93.39 94.62 94.29
93.09 94.24 93.34 94.44 94.09
93.14 94.14 93.28 94.52 94.22
93.21 94.30 93.56 94.32 94.23
93.20 94.18 93.29 94.50 94.39
93.15 94.21 93.27 94.66 94.31
93.08 94.20 93.34 94.52 94.21
93.16 94.20 93.37 94.60 94.27
93.20 94.19 93.36 94.42 94.01
93.04 94.22 93.31 94.34 94.26
93.27 94.35 93.26 94.44 94.28
93.34 94.44 93.53 94.39 94.38
93.26 94.34 93.44 94.67 94.35
93.20 94.29 93.26 94.54 94.40
93.26 94.24 93.35 94.42 94.21
93.16 94.24 93.35 94.38 94.38
93.30 94.38 93.48 94.60 94.37
93.13 94.27 93.34 94.58 94.20
93.22 94.23 93.60 94.61 94.37
93.09 94.25 93.48 94.38 94.15
93.23 94.25 93.45 94.63 94.31
93.18 94.29 93.36 94.35 94.23
93.32 94.30 93.58 94.62 94.25
93.18 94.17 93.32 94.58 94.42
93.12 94.26 93.43 94.47 94.34
93.12 94.35 93.23 94.44 94.38
93.20 94.17 93.36 94.31 94.04
93.31 94.27 93.39 94.41 94.14
93.33 94.33 93.27 94.74 94.37
93.14 94.18 93.50 94.56 94.35
93.21 94.40 93.42 94.57 94.37
93.13 94.18 93.37 94.43 94.23
93.29 94.27 93.45 94.60 94.24
93.14 94.19 93.28 94.66 94.22
93.29 94.36 93.70 94.52 94.30
93.23 94.25 93.41 94.33 94.08
93.23 94.20 93.37 94.40 94.21
93.19 94.28 93.37 94.47 94.38
93.30 94.30 93.43 94.51 94.27
93.18 94.13 93.46 94.47 94.30
93.38 94.31 93.77 94.51 94.15
93.23 94.17 93.35 94.49 94.24
93.23 94.34 93.43 94.54 94.42
93.16 94.29 93.29 94.37 94.26
93.19 94.36 93.42 94.61 94.48
93.11 94.20 93.67 94.63 94.30
93.12 94.12 93.29 94.52 94.18
93.18 94.42 93.42 94.53 94.33
93.41 94.29 93.38 94.47 94.19
93.10 94.23 93.45 94.38 94.09
93.14 94.23 93.49 94.47 94.32
93.18 94.24 93.54 94.50 94.35
93.26 94.31 93.35 94.62 94.25
93.18 94.32 93.46 94.42 94.43
93.15 94.19 93.43 94.52 94.41
93.11 94.30 93.31 94.50 94.14
93.23 94.41 93.37 94.50 94.29
93.34 94.37 93.69 94.49 94.51
93.17 94.28 93.51 94.68 94.40
93.14 94.27 93.34 94.48 94.35
93.24 94.20 93.40 94.71 94.47
93.27 94.28 93.40 94.57 94.41
93.14 94.26 93.61 94.62 94.35
93.26 94.25 93.31 94.60 94.27
93.34 94.33 93.42 94.43 94.32
93.22 94.19 93.45 94.53 94.39
93.18 94.29 93.36 94.55 94.28
93.10 94.13 93.41 94.29 94.05
93.46 94.41 93.52 94.64 94.48
93.31 94.16 93.54 94.42 94.03
93.16 94.16 93.35 94.48 94.22
93.24 94.30 93.38 94.55 94.45
93.19 94.27 93.48 94.62 94.23
93.12 94.19 93.38 94.51 94.16
