answers reviews emails weblogs newsgroups
93.15 94.18 93.39 94.51 94.15
93.18 94.04 93.27 94.21 94.04
93.17 94.39 93.33 94.46 94.16
93.15 94.21 93.29 94.57 94.23
93.34 94.34 93.64 94.61 94.36
93.25 94.29 93.54 94.62 94.32
93.29 94.31 93.41 94.62 94.35
93.10 94.34 93.36 94.48 94.15
93.28 94.34 93.49 94.58 94.31
93.27 94.26 93.57 94.51 94.30
92.78 93.94 93.16 94.29 93.89
93.17 94.24 93.45 94.63 94.35
93.17 94.35 93.62 94.64 94.49
93.16 94.30 93.58 94.54 94.23
93.17 94.20 93.46 94.53 94.42
93.17 94.42 93.48 94.77 94.45
93.10 94.20 93.45 94.57 94.31
93.29 94.20 93.33 94.48 94.24
93.31 94.42 93.60 94.69 94.42
93.26 94.39 93.55 94.71 94.24
93.22 94.37 93.51 94.37 94.04
93.14 94.25 93.59 94.70 94.25
93.28 94.35 93.37 94.20 94.00
92.86 94.06 93.24 94.22 93.84
93.26 94.24 93.43 94.52 94.21
93.20 94.31 93.54 94.53 94.47
93.17 94.22 93.43 94.28 94.05
93.21 94.34 93.48 94.50 94.30
93.30 94.32 93.52 94.63 94.30
93.21 94.27 93.36 94.51 94.47
93.37 94.35 93.29 94.54 94.26
93.31 94.32 93.39 94.56 94.11
93.10 94.13 93.31 94.39 94.11
93.23 94.09 93.43 94.42 94.12
92.61 93.87 93.02 94.27 94.06
93.27 94.22 93.27 94.46 94.23
93.07 93.71 93.31 94.29 94.01
93.22 94.40 93.52 94.55 94.48
93.21 94.32 93.56 94.73 94.54
93.22 94.32 93.35 94.44 94.14
93.23 94.36 93.46 94.66 94.48
93.28 94.35 93.61 94.65 94.45
93.24 94.33 93.41 94.70 94.34
93.22 94.12 93.52 94.56 94.33
93.17 94.31 93.30 94.42 94.22
93.16 94.13 93.58 94.70 94.32
93.28 94.18 93.38 94.79 94.44
93.14 94.17 93.37 94.42 94.05
93.30 94.44 93.40 94.71 94.21
93.19 94.32 93.72 94.61 94.36
93.30 94.33 93.50 94.61 94.40
93.31 94.30 93.42 94.75 94.41
93.22 94.29 93.36 94.40 94.25
93.28 94.30 93.44 94.71 94.36
93.28 94.30 93.75 94.60 94.37
93.22 94.31 93.33 94.49 94.14
92.95 94.00 93.34 94.49 94.20
93.40 94.42 93.63 94.70 94.44
93.14 94.21 93.27 94.45 94.19
92.83 93.72 93.13 94.13 93.82
93.14 94.18 93.48 94.42 94.22
93.04 94.22 93.27 94.39 94.12
93.35 94.29 93.47 94.65 94.42
93.21 94.29 93.44 94.68 94.39
93.22 94.27 93.55 94.53 94.19
93.27 94.37 93.65 94.56 94.28
93.21 94.22 93.42 94.41 94.16
93.05 94.30 93.31 94.36 94.00
93.30 94.40 93.44 94.67 94.39
93.18 94.35 93.52 94.36 94.36
93.17 94.35 93.50 94.56 94.11
93.16 94.30 93.48 94.46 94.21
93.12 94.26 93.32 94.65 94.37
93.20 94.41 93.51 94.55 94.32
93.24 94.31 93.38 94.67 94.32
93.22 94.35 93.39 94.52 94.43
93.26 94.30 93.48 94.78 94.46
93.10 94.25 93.37 94.67 94.29
93.20 94.30 93.58 94.51 94.44
93.19 94.19 93.34 94.40 94.11
93.06 94.01 93.37 94.11 93.94
93.17 94.34 93.42 94.58 94.42
93.12 94.19 93.34 94.51 94.42
93.23 94.44 93.36 94.70 94.45
93.19 94.35 93.27 94.41 94.14
93.29 94.27 93.53 94.74 94.27
93.09 94.11 93.32 94.31 94.06
93.21 94.48 93.50 94.64 94.41
93.05 93.99 93.17 94.28 94.03
93.23 94.34 93.19 94.52 94.38
93.31 94.45 93.55 94.70 94.23
93.29 94.37 93.53 94.66 94.41
92.77 93.40 92.69 93.74 93.55
93.10 94.30 93.40 94.54 94.06
93.00 94.13 93.48 94.35 94.14
93.43 94.34 93.40 94.58 94.38
93.20 94.26 93.49 94.63 94.43
93.30 94.46 93.51 94.59 94.46
93.16 94.18 93.33 94.44 93.96
93.22 94.22 93.43 94.53 94.29
93.18 94.39 93.29 94.41 94.01
93.19 94.21 93.43 94.20 93.81
93.07 94.11 93.14 94.39 94.31
93.40 94.36 93.60 94.69 94.40
93.25 94.34 93.48 94.61 94.33
93.30 94.46 93.53 94.64 94.43
93.42 94.37 93.38 94.38 94.37
93.29 94.14 93.33 94.24 94.18
93.24 94.31 93.42 94.50 94.37
93.29 94.22 93.45 94.33 94.04
93.13 94.34 93.43 94.61 94.35
93.13 94.15 93.45 94.39 94.39
93.35 94.41 93.78 94.60 94.13
93.21 94.18 93.51 94.52 94.14
93.34 94.40 93.45 94.57 94.32
93.27 94.34 93.38 94.50 94.13
93.21 94.42 93.46 94.59 94.27
93.21 94.45 93.47 94.62 94.38
93.22 94.31 93.35 94.52 94.16
93.24 94.37 93.36 94.32 94.24
93.33 94.38 93.61 94.55 94.35
93.21 94.19 93.53 94.60 94.44
93.24 94.30 93.25 94.48 94.17
93.17 94.06 93.42 94.36 94.26
93.26 94.32 93.44 94.62 94.43
93.18 94.19 93.29 94.41 94.01
92.98 94.15 93.39 94.48 94.34
93.18 94.23 93.40 94.31 94.09
93.25 94.23 93.60 94.29 94.13
93.13 94.17 93.33 94.21 94.10
93.34 94.41 93.56 94.72 94.39
93.12 94.26 93.37 94.24 94.04
93.31 94.24 93.53 94.63 94.20
92.71 93.78 93.01 94.00 93.80
93.37 94.36 93.62 94.60 94.44
93.21 94.38 93.37 94.52 94.36
93.45 94.45 93.51 94.59 94.40
92.89 93.99 93.07 94.09 93.99
93.39 94.38 93.43 94.66 94.42
93.14 94.24 93.62 94.47 94.16
93.16 94.18 93.44 94.61 94.26
93.27 94.39 93.48 94.46 94.22
93.35 94.40 93.39 94.66 94.38
93.13 94.25 93.32 94.38 94.07
93.32 94.34 93.43 94.61 94.51
93.11 94.27 93.39 94.49 94.23
93.29 94.32 93.42 94.51 94.12
92.43 93.78 92.53 93.89 93.76
93.16 94.19 93.40 94.38 94.03
93.08 94.08 93.27 94.55 94.39
93.10 94.19 93.28 94.49 94.15
93.02 94.10 93.35 94.31 94.07
93.18 94.30 93.28 94.14 94.22
93.43 94.43 93.41 94.66 94.37
93.28 94.36 93.52 94.54 94.51
